{
  "development": {
    "username": "sa",
    "password": "P@55word",
    "database": "eft_enginedb",
    "host": "127.0.0.1",
    "dialect": "mssql",
    "port": "1433"
  },
  "test": {
    "username": "sa",
    "password": "!Tex@4839",
    "database": "eft_engine",
    "host": "45.56.126.19",
    "dialect": "mssql"
  },
  "production": {
    "username": "sa",
    "password": "!Tex@4839",
    "database": "eft_engine",
    "host": "45.56.126.19",
    "dialect": "mssql"
  }
}
