[
    {"All My Terminals":"2033CWH3","field2":"PAX","field3":"","field4":"S90","field5":"UBA","field6":"ITEX"},
    {"All My Terminals":"2033CWH4","field2":"PAX","field3":"3K182377","field4":"S90","field5":"UBA","field6":"ITEX"},
    {"All My Terminals":"2033CWH5","field2":"PAX","field3":"3K168983","field4":"S90","field5":"UBA","field6":"ITEX"},
    {"All My Terminals":"2033CWH6","field2":"PAX","field3":"","field4":"S90","field5":"UBA","field6":"ITEX"},
    {"All My Terminals":"2033CWH7","field2":"PAX","field3":"","field4":"S90","field5":"UBA","field6":"ITEX"},
    {"All My Terminals":"2033CWH8","field2":"PAX","field3":"","field4":"S90","field5":"UBA","field6":"ITEX"},
    {"All My Terminals":"2033CWI0","field2":"PAX","field3":"3D478502","field4":"S90","field5":"UBA","field6":"ITEX"},
    {"All My Terminals":"2033CWI3","field2":"PAX","field3":"3K371180","field4":"S90","field5":"UBA","field6":"ITEX"},
    {"All My Terminals":"2033CWI4","field2":"PAX","field3":"3K168911","field4":"S90","field5":"UBA","field6":"ITEX"},
    {"All My Terminals":"2033CWI5","field2":"PAX","field3":"3K168985","field4":"S90","field5":"UBA","field6":"ITEX"},
    {"All My Terminals":"2033CWI6","field2":"PAX","field3":"3K269966","field4":"S90","field5":"UBA","field6":"ITEX"},
    {"All My Terminals":"2033CWI7","field2":"PAX","field3":"","field4":"S90","field5":"UBA","field6":"ITEX"},
    {"All My Terminals":"2033CWI8","field2":"PAX","field3":"3K269793","field4":"SP600","field5":"UBA","field6":"ITEX"},
    {"All My Terminals":"2033CWI9","field2":"PAX","field3":"3K190852","field4":"S90","field5":"UBA","field6":"ITEX"},
    {"All My Terminals":"2033CWJ0","field2":"PAX","field3":"3K371186","field4":"S90","field5":"UBA","field6":"ITEX"},
    {"All My Terminals":"2033CWJ2","field2":"PAX","field3":"3K371179","field4":"S90","field5":"UBA","field6":"ITEX"},
    {"All My Terminals":"2033CWJ3","field2":"PAX","field3":"3K371185","field4":"S90","field5":"UBA","field6":"ITEX"},
    {"All My Terminals":"2033CWJ4","field2":"PAX","field3":"3D195311","field4":"S90","field5":"UBA","field6":"ITEX"},
    {"All My Terminals":"2033CWJ5","field2":"PAX","field3":"","field4":"S90","field5":"UBA","field6":"ITEX"},
    {"All My Terminals":"2033CWJ6","field2":"PAX","field3":"3D335753","field4":"S90","field5":"UBA","field6":"ITEX"},
    {"All My Terminals":"2033CWJ8","field2":"PAX","field3":"","field4":"S90","field5":"UBA","field6":"ITEX"},
    {"All My Terminals":"2033CWJ9","field2":"PAX","field3":"","field4":"S90","field5":"UBA","field6":"ITEX"},
    {"All My Terminals":"2033CWK1","field2":"PAX","field3":"","field4":"S90","field5":"UBA","field6":"ITEX"},
    {"All My Terminals":"2033CWK2","field2":"PAX","field3":"","field4":"S90","field5":"UBA","field6":"ITEX"},
    {"All My Terminals":"2033CWK3","field2":"PAX","field3":"","field4":"S90","field5":"UBA","field6":"ITEX"},
    {"All My Terminals":"2033CWK4","field2":"PAX","field3":"","field4":"S90","field5":"UBA","field6":"ITEX"},
    {"All My Terminals":"2033CWK6","field2":"PAX","field3":"","field4":"S90","field5":"UBA","field6":"ITEX"},
    {"All My Terminals":"2033CWK7","field2":"PAX","field3":"","field4":"S90","field5":"UBA","field6":"ITEX"},
    {"All My Terminals":"2033CWL2","field2":"PAX","field3":"","field4":"S90","field5":"UBA","field6":"ITEX"},
    {"All My Terminals":"2033EGH1","field2":"PAX","field3":"","field4":"S90","field5":"UBA","field6":"ITEX"},
    {"All My Terminals":"2033EGH2","field2":"PAX","field3":"","field4":"S90","field5":"UBA","field6":"ITEX"},
    {"All My Terminals":"2033EGH3","field2":"PAX","field3":"","field4":"S90","field5":"UBA","field6":"ITEX"},
    {"All My Terminals":"2033EGH5","field2":"PAX","field3":"","field4":"S90","field5":"UBA","field6":"ITEX"},
    {"All My Terminals":"2033EGH6","field2":"PAX","field3":"","field4":"S90","field5":"UBA","field6":"ITEX"},
    {"All My Terminals":"2033EGH7","field2":"PAX","field3":"","field4":"S90","field5":"UBA","field6":"ITEX"},
    {"All My Terminals":"2033EGH8","field2":"PAX","field3":"","field4":"S90","field5":"UBA","field6":"ITEX"},
    {"All My Terminals":"2033EGH8","field2":"PAX","field3":"","field4":"S90","field5":"UBA","field6":"ITEX"},
    {"All My Terminals":"2033EGH9","field2":"PAX","field3":"","field4":"S90","field5":"UBA","field6":"ITEX"},
    {"All My Terminals":"2033EGI0","field2":"PAX","field3":"","field4":"S90","field5":"UBA","field6":"ITEX"},
    {"All My Terminals":"2033EGI1","field2":"PAX","field3":"","field4":"S90","field5":"UBA","field6":"ITEX"},
    {"All My Terminals":"2033EGI2","field2":"PAX","field3":"","field4":"S90","field5":"UBA","field6":"ITEX"},
    {"All My Terminals":"2033EGI3","field2":"PAX","field3":"","field4":"S90","field5":"UBA","field6":"ITEX"},
    {"All My Terminals":"2033EGI4","field2":"PAX","field3":"","field4":"S90","field5":"UBA","field6":"ITEX"},
    {"All My Terminals":"2033EGi5","field2":"PAX","field3":"","field4":"S90","field5":"UBA","field6":"ITEX"},
    {"All My Terminals":"2033EGI6","field2":"PAX","field3":"","field4":"S90","field5":"UBA","field6":"ITEX"},
    {"All My Terminals":"2033EGI7","field2":"PAX","field3":"","field4":"S90","field5":"UBA","field6":"ITEX"},
    {"All My Terminals":"2033EGI9","field2":"PAX","field3":"","field4":"S90","field5":"UBA","field6":"ITEX"},
    {"All My Terminals":"2033EGJ0","field2":"PAX","field3":"","field4":"S90","field5":"UBA","field6":"ITEX"},
    {"All My Terminals":"2033EGJ1","field2":"PAX","field3":"","field4":"S90","field5":"UBA","field6":"ITEX"},
    {"All My Terminals":"2033EGJ3","field2":"PAX","field3":"","field4":"S90","field5":"UBA","field6":"ITEX"},
    {"All My Terminals":"2033EGJ4","field2":"PAX","field3":"","field4":"S90","field5":"UBA","field6":"ITEX"},
    {"All My Terminals":"2033EGJ4","field2":"PAX","field3":"","field4":"S90","field5":"UBA","field6":"ITEX"},
    {"All My Terminals":"2033EGJ8","field2":"PAX","field3":"","field4":"S90","field5":"UBA","field6":"ITEX"},
    {"All My Terminals":"2033EGK1","field2":"PAX","field3":"","field4":"S90","field5":"UBA","field6":"ITEX"},
    {"All My Terminals":"2033EGK2","field2":"PAX","field3":"","field4":"S90","field5":"UBA","field6":"ITEX"},
    {"All My Terminals":"2033EGK3","field2":"PAX","field3":"","field4":"S90","field5":"UBA","field6":"ITEX"},
    {"All My Terminals":"2033EGK7","field2":"PAX","field3":"","field4":"S90","field5":"UBA","field6":"ITEX"},
    {"All My Terminals":"2033EGK8","field2":"PAX","field3":"","field4":"S90","field5":"UBA","field6":"ITEX"},
    {"All My Terminals":"2033EGK9","field2":"PAX","field3":"","field4":"S90","field5":"UBA","field6":"ITEX"},
    {"All My Terminals":"2033EGL0","field2":"PAX","field3":"","field4":"S90","field5":"UBA","field6":"ITEX"},
    {"All My Terminals":"2033EGL2","field2":"PAX","field3":"","field4":"S90","field5":"UBA","field6":"ITEX"},
    {"All My Terminals":"2033HOC7","field2":"PAX","field3":"","field4":"S90","field5":"UBA","field6":"ITEX"},
    {"All My Terminals":"2033HOC8","field2":"PAX","field3":"","field4":"S90","field5":"UBA","field6":"ITEX"},
    {"All My Terminals":"2033HOC9","field2":"PAX","field3":"","field4":"S90","field5":"UBA","field6":"ITEX"},
    {"All My Terminals":"2033HOD0","field2":"PAX","field3":"","field4":"S90","field5":"UBA","field6":"ITEX"},
    {"All My Terminals":"2033HOD1","field2":"PAX","field3":"","field4":"S90","field5":"UBA","field6":"ITEX"},
    {"All My Terminals":"2033HOD2","field2":"PAX","field3":"","field4":"S90","field5":"UBA","field6":"ITEX"},
    {"All My Terminals":"2033HOD3","field2":"PAX","field3":"","field4":"S90","field5":"UBA","field6":"ITEX"},
    {"All My Terminals":"2033HOD4","field2":"PAX","field3":"","field4":"S90","field5":"UBA","field6":"ITEX"},
    {"All My Terminals":"2033HOD5","field2":"PAX","field3":"","field4":"S90","field5":"UBA","field6":"ITEX"},
    {"All My Terminals":"2033HOD6","field2":"PAX","field3":"","field4":"S90","field5":"UBA","field6":"ITEX"},
    {"All My Terminals":"2033HVR7","field2":"PAX","field3":"","field4":"S90","field5":"UBA","field6":"ITEX"},
    {"All My Terminals":"2033HVR8","field2":"PAX","field3":"","field4":"S90","field5":"UBA","field6":"ITEX"},
    {"All My Terminals":"2033HVR9","field2":"PAX","field3":"","field4":"S90","field5":"UBA","field6":"ITEX"},
    {"All My Terminals":"2033HVS0","field2":"PAX","field3":"","field4":"S90","field5":"UBA","field6":"ITEX"},
    {"All My Terminals":"2033HVS1","field2":"PAX","field3":"","field4":"S90","field5":"UBA","field6":"ITEX"},
    {"All My Terminals":"2033HVS2","field2":"PAX","field3":"","field4":"S90","field5":"UBA","field6":"ITEX"},
    {"All My Terminals":"2033HVS3","field2":"PAX","field3":"","field4":"S90","field5":"UBA","field6":"ITEX"},
    {"All My Terminals":"2033HVS4","field2":"PAX","field3":"","field4":"S90","field5":"UBA","field6":"ITEX"},
    {"All My Terminals":"2033HVS5","field2":"PAX","field3":"","field4":"S90","field5":"UBA","field6":"ITEX"},
    {"All My Terminals":"2033HVS6","field2":"PAX","field3":"","field4":"S90","field5":"UBA","field6":"ITEX"}
]